name,lat,lon
US1VTAD0001,44.0468,-73.3441
US1VTAD0005,43.8119,-73.3197
US1VTAD0006,44.0789,-73.4129
US1VTAD0015,44.0478,-73.2933
US1VTCH0005,44.4823,-73.2191
US1VTCH0020,44.4766,-73.2210
US1VTCH0031,44.5225,-73.1623
US1VTFR0002,44.9614,-73.0996
US1VTFR0004,44.9190,-73.1170
US1VTFR0016,44.9187,-73.1199
US1VTFR0019,44.9259,-73.1215
US1VTGI0003,44.9128,-73.2689
USC00430499,43.1333,-72.4500
USC00431320,44.3000,-73.2333
USC00432828,44.4833,-73.1167
USC00433240,44.6167,-72.5333
USC00433914,44.9339,-73.0494
USC00437026,44.8000,-73.1667
USC00437217,43.8667,-73.2500
USC00437310,43.2500,-72.7500
USC00437607,44.6264,-73.3031
USC00437954,43.2667,-72.4500
USC00438597,44.1719,-73.2472
USC00438600,42.7717,-72.5150