US1NYAB0006
US1NYAB0017
US1NYAB0021
US1NYAB0022
US1NYAB0023
US1NYAB0025
US1NYAB0029
US1NYAB0032
US1NYAB0037
US1NYAB0039
US1NYCB0001
US1NYCB0008
US1NYCL0005
US1NYCL0007
US1NYDT0001
US1NYDT0004
US1NYDT0005
US1NYDT0007
US1NYDT0009
US1NYDT0010
US1NYDT0023
US1NYDT0024
US1NYER0083
US1NYGR0005
US1NYGR0009
US1NYJF0005
US1NYMG0001
US1NYMR0008
US1NYMR0018
US1NYMR0020
US1NYMR0024
US1NYMR0056
US1NYNS0001
US1NYNS0006
US1NYNS0007
US1NYNS0009
US1NYNS0018
US1NYNS0022
US1NYNS0024
US1NYNS0027
US1NYNS0030
US1NYNS0032
US1NYNS0036
US1NYNS0037
US1NYNS0042
US1NYNS0043
US1NYNS0045
US1NYNS0046
US1NYOL0002
US1NYOR0002
US1NYOS0006
US1NYOS0021
US1NYQN0002
US1NYQN0027
US1NYRC0001
US1NYRC0002
US1NYRL0003
US1NYRL0005
US1NYRN0007
US1NYSC0002
US1NYSC0016
US1NYSF0002
US1NYSF0003
US1NYSF0016
US1NYSF0018
US1NYSF0019
US1NYSF0024
US1NYSF0030
US1NYSF0037
US1NYSF0041
US1NYSF0044
US1NYSF0057
US1NYSF0058
US1NYSF0059
US1NYSF0061
US1NYSF0063
US1NYSF0069
US1NYSF0073
US1NYSF0075
US1NYSF0076
US1NYSF0077
US1NYSF0078
US1NYSF0079
US1NYSF0080
US1NYSF0084
US1NYSF0090
US1NYSF0091
US1NYSF0100
US1NYSF0103
US1NYSF0104
US1NYSF0109
US1NYSF0110
US1NYSF0114
US1NYSF0115
US1NYSL0002
US1NYSL0008
US1NYSL0010
US1NYSR0004
US1NYSR0006
US1NYSR0008
US1NYSR0013
US1NYSR0015
US1NYSR0029
US1NYSR0033
US1NYUL0001
US1NYUL0003
US1NYUL0004
US1NYUL0012
US1NYUL0016
US1NYUL0020
US1NYUL0022
US1NYUL0025
US1NYUL0026
US1NYWC0003
US1NYWC0005
US1NYWC0009
US1NYWC0011
US1NYWN0004
US1NYWR0013
USC00300048
USC00300077
USC00300159
USC00300208
USC00300300
USC00300351
USC00300364
USC00300386
USC00300412
USC00300862
USC00300889
USC00300958
USC00300961
USC00301093
USC00301144
USC00301196
USC00301220
USC00301260
USC00301288
USC00301401
USC00301598
USC00301896
USC00301904
USC00301912
USC00301949
USC00302091
USC00302129
USC00302291
USC00302760
USC00302868
USC00302941
USC00302946
USC00302953
USC00302964
USC00303125
USC00303138
USC00303152
USC00303259
USC00303299
USC00303781
USC00303786
USC00303825
USC00303839
USC00303881
USC00303919
USC00304024
USC00304353
USC00304354
USC00304424
USC00304531
USC00304563
USC00304565
USC00304613
USC00304801
USC00304940
USC00304957
USC00305129
USC00305231
USC00305235
USC00305377
USC00305380
USC00305382
USC00305429
USC00305606
USC00305618
USC00305728
USC00305799
USC00305806
USC00305821
USC00305869
USC00305965
USC00306164
USC00306368
USC00306441
USC00306659
USC00306660
USC00306674
USC00306765
USC00306817
USC00306820
USC00306827
USC00306983
USC00307033
USC00307035
USC00307115
USC00307134
USC00307252
USC00307274
USC00307282
USC00307291
USC00307420
USC00307484
USC00307497
USC00307505
USC00307544
USC00307549
USC00307568
USC00307587
USC00307633
USC00307818
USC00307895
USC00308072
USC00308317
USC00308322
USC00308503
USC00308523
USC00308577
USC00308586
USC00308597
USC00308720
USC00308746
USC00308773
USC00308870
USC00308949
USC00309049
USC00309055
USC00309117
USC00309270
USC00309292
USC00309389
USC00309400
USC00309466
USC00309494
USC00309495
USC00309576
USC00309690
USC00309691
USR0000NSTO
USW00004742
USW00004781
USW00004782
USW00014708
USW00014719
USW00014735
USW00014750
USW00014757
USW00014772
USW00054787
USW00054790
USW00064776
USW00093732
USW00094725
USW00094728
USW00094790
